0
SECTION
2
HEADER
9
$ACADVER
1
AC1006
0
ENDSEC
0
SECTION
2
TABLES
0
TABLE
2
LAYER
70
5
0
LAYER
70
0
62
1
6
CONTINUOUS
2
L0D0_0
0
LAYER
70
0
62
2
6
CONTINUOUS
2
L1D0
0
LAYER
70
0
62
3
6
CONTINUOUS
2
L1D1000
0
LAYER
70
0
62
4
6
CONTINUOUS
2
L1D1039
0
LAYER
70
0
62
5
6
CONTINUOUS
2
L1D10
0
ENDTAB
0
ENDSEC
0
SECTION
2
BLOCKS
0
BLOCK
2
RectifierSplit
70
0
10
0
20
0
0
POLYLINE
8
L0D0_0
70
1
40
0
41
0
66
1
0
VERTEX
8
L0D0_0
10
5.723
20
5.868
0
VERTEX
8
L0D0_0
10
6.118
20
7.347
0
VERTEX
8
L0D0_0
10
5.723
20
8.802
0
VERTEX
8
L0D0_0
10
5.934
20
8.802
0
VERTEX
8
L0D0_0
10
6.177
20
7.896
0
VERTEX
8
L0D0_0
10
6.296
20
8.349
0
VERTEX
8
L0D0_0
10
6.485
20
8.804
0
VERTEX
8
L0D0_0
10
6.758
20
9.214
0
VERTEX
8
L0D0_0
10
7.106
20
9.562
0
VERTEX
8
L0D0_0
10
7.234
20
9.407
0
VERTEX
8
L0D0_0
10
6.913
20
9.086
0
VERTEX
8
L0D0_0
10
6.662
20
8.709
0
VERTEX
8
L0D0_0
10
6.488
20
8.291
0
VERTEX
8
L0D0_0
10
6.326
20
7.347
0
VERTEX
8
L0D0_0
10
6.27
20
7.139
0
VERTEX
8
L0D0_0
10
5.934
20
5.868
0
SEQEND
0
ENDBLK
0
BLOCK
2
CIRCLE
70
0
10
0
20
0
0
POLYLINE
8
L1D0
70
1
40
0
41
0
66
1
0
VERTEX
8
L1D0
10
-0.443
20
-9
0
VERTEX
8
L1D0
10
-1.322
20
-8.913
0
VERTEX
8
L1D0
10
-2.19
20
-8.741
0
VERTEX
8
L1D0
10
-3.036
20
-8.484
0
VERTEX
8
L1D0
10
-3.852
20
-8.145
0
VERTEX
8
L1D0
10
-4.632
20
-7.73
0
VERTEX
8
L1D0
10
-5.369
20
-7.238
0
VERTEX
8
L1D0
10
-6.051
20
-6.677
0
VERTEX
8
L1D0
10
-6.677
20
-6.051
0
VERTEX
8
L1D0
10
-7.238
20
-5.369
0
VERTEX
8
L1D0
10
-7.73
20
-4.632
0
VERTEX
8
L1D0
10
-8.145
20
-3.852
0
VERTEX
8
L1D0
10
-8.484
20
-3.036
0
VERTEX
8
L1D0
10
-8.741
20
-2.19
0
VERTEX
8
L1D0
10
-8.913
20
-1.322
0
VERTEX
8
L1D0
10
-9
20
-0.443
0
VERTEX
8
L1D0
10
-9
20
0.443
0
VERTEX
8
L1D0
10
-8.913
20
1.322
0
VERTEX
8
L1D0
10
-8.741
20
2.19
0
VERTEX
8
L1D0
10
-8.484
20
3.036
0
VERTEX
8
L1D0
10
-8.145
20
3.852
0
VERTEX
8
L1D0
10
-7.73
20
4.632
0
VERTEX
8
L1D0
10
-7.238
20
5.369
0
VERTEX
8
L1D0
10
-6.677
20
6.051
0
VERTEX
8
L1D0
10
-6.051
20
6.677
0
VERTEX
8
L1D0
10
-5.369
20
7.238
0
VERTEX
8
L1D0
10
-4.632
20
7.73
0
VERTEX
8
L1D0
10
-3.852
20
8.145
0
VERTEX
8
L1D0
10
-3.036
20
8.484
0
VERTEX
8
L1D0
10
-2.19
20
8.741
0
VERTEX
8
L1D0
10
-1.322
20
8.913
0
VERTEX
8
L1D0
10
-0.443
20
9
0
VERTEX
8
L1D0
10
0.443
20
9
0
VERTEX
8
L1D0
10
1.322
20
8.913
0
VERTEX
8
L1D0
10
2.19
20
8.741
0
VERTEX
8
L1D0
10
3.036
20
8.484
0
VERTEX
8
L1D0
10
3.852
20
8.145
0
VERTEX
8
L1D0
10
4.632
20
7.73
0
VERTEX
8
L1D0
10
5.369
20
7.238
0
VERTEX
8
L1D0
10
6.051
20
6.677
0
VERTEX
8
L1D0
10
6.677
20
6.051
0
VERTEX
8
L1D0
10
7.238
20
5.369
0
VERTEX
8
L1D0
10
7.73
20
4.632
0
VERTEX
8
L1D0
10
8.145
20
3.852
0
VERTEX
8
L1D0
10
8.484
20
3.036
0
VERTEX
8
L1D0
10
8.741
20
2.19
0
VERTEX
8
L1D0
10
8.913
20
1.322
0
VERTEX
8
L1D0
10
9
20
0.443
0
VERTEX
8
L1D0
10
9
20
-0.443
0
VERTEX
8
L1D0
10
8.913
20
-1.322
0
VERTEX
8
L1D0
10
8.741
20
-2.19
0
VERTEX
8
L1D0
10
8.484
20
-3.036
0
VERTEX
8
L1D0
10
8.145
20
-3.852
0
VERTEX
8
L1D0
10
7.73
20
-4.632
0
VERTEX
8
L1D0
10
7.238
20
-5.369
0
VERTEX
8
L1D0
10
6.677
20
-6.051
0
VERTEX
8
L1D0
10
6.051
20
-6.677
0
VERTEX
8
L1D0
10
5.369
20
-7.238
0
VERTEX
8
L1D0
10
4.632
20
-7.73
0
VERTEX
8
L1D0
10
3.852
20
-8.145
0
VERTEX
8
L1D0
10
3.036
20
-8.484
0
VERTEX
8
L1D0
10
2.19
20
-8.741
0
VERTEX
8
L1D0
10
1.322
20
-8.913
0
VERTEX
8
L1D0
10
0.443
20
-9
0
SEQEND
0
ENDBLK
0
BLOCK
2
FeedbackLoop_only
70
0
10
0
20
0
0
INSERT
8
0
2
RectifierSplit
10
0
20
0
41
1
42
1
50
0
0
INSERT
8
0
2
RectifierSplit
10
0
20
-5.868
41
1
42
1
50
0
0
POLYLINE
8
L1D0
70
1
40
0
41
0
66
1
0
VERTEX
8
L1D0
10
7.234
20
3.539
0
VERTEX
8
L1D0
10
7.106
20
3.694
0
VERTEX
8
L1D0
10
10.166
20
5.833
0
VERTEX
8
L1D0
10
10.487
20
6.154
0
VERTEX
8
L1D0
10
10.738
20
6.531
0
VERTEX
8
L1D0
10
10.912
20
6.949
0
VERTEX
8
L1D0
10
11
20
7.393
0
VERTEX
8
L1D0
10
11
20
7.847
0
VERTEX
8
L1D0
10
10.912
20
8.291
0
VERTEX
8
L1D0
10
10.738
20
8.709
0
VERTEX
8
L1D0
10
10.487
20
9.086
0
VERTEX
8
L1D0
10
10.166
20
9.407
0
VERTEX
8
L1D0
10
9.789
20
9.658
0
VERTEX
8
L1D0
10
9.371
20
9.832
0
VERTEX
8
L1D0
10
8.927
20
9.92
0
VERTEX
8
L1D0
10
8.473
20
9.92
0
VERTEX
8
L1D0
10
8.029
20
9.832
0
VERTEX
8
L1D0
10
7.611
20
9.658
0
VERTEX
8
L1D0
10
7.234
20
9.407
0
VERTEX
8
L1D0
10
7.106
20
9.562
0
VERTEX
8
L1D0
10
7.516
20
9.835
0
VERTEX
8
L1D0
10
7.971
20
10.024
0
VERTEX
8
L1D0
10
8.454
20
10.12
0
VERTEX
8
L1D0
10
8.946
20
10.12
0
VERTEX
8
L1D0
10
9.429
20
10.024
0
VERTEX
8
L1D0
10
9.884
20
9.835
0
VERTEX
8
L1D0
10
10.294
20
9.562
0
VERTEX
8
L1D0
10
10.642
20
9.214
0
VERTEX
8
L1D0
10
10.915
20
8.804
0
VERTEX
8
L1D0
10
11.104
20
8.349
0
VERTEX
8
L1D0
10
11.2
20
7.866
0
VERTEX
8
L1D0
10
11.2
20
7.374
0
VERTEX
8
L1D0
10
11.104
20
6.891
0
VERTEX
8
L1D0
10
10.915
20
6.436
0
VERTEX
8
L1D0
10
10.642
20
6.026
0
VERTEX
8
L1D0
10
10.294
20
5.678
0
SEQEND
0
ENDBLK
0
BLOCK
2
PIE
70
0
10
0
20
0
0
POLYLINE
8
L1D0
70
1
40
0
41
0
66
1
0
VERTEX
8
L1D0
10
0
20
-1.001
0
VERTEX
8
L1D0
10
-0.1
20
-0.996
0
VERTEX
8
L1D0
10
-0.198
20
-0.981
0
VERTEX
8
L1D0
10
-0.295
20
-0.957
0
VERTEX
8
L1D0
10
-0.389
20
-0.923
0
VERTEX
8
L1D0
10
-0.479
20
-0.879
0
VERTEX
8
L1D0
10
-0.564
20
-0.827
0
VERTEX
8
L1D0
10
-0.644
20
-0.767
0
VERTEX
8
L1D0
10
-0.717
20
-0.699
0
VERTEX
8
L1D0
10
-0.783
20
-0.624
0
VERTEX
8
L1D0
10
-0.841
20
-0.543
0
VERTEX
8
L1D0
10
-0.866
20
-0.5
0
VERTEX
8
L1D0
10
0
20
0
0
VERTEX
8
L1D0
10
0.866
20
-0.5
0
VERTEX
8
L1D0
10
0.841
20
-0.543
0
VERTEX
8
L1D0
10
0.783
20
-0.624
0
VERTEX
8
L1D0
10
0.717
20
-0.699
0
VERTEX
8
L1D0
10
0.644
20
-0.767
0
VERTEX
8
L1D0
10
0.564
20
-0.827
0
VERTEX
8
L1D0
10
0.479
20
-0.879
0
VERTEX
8
L1D0
10
0.389
20
-0.923
0
VERTEX
8
L1D0
10
0.295
20
-0.957
0
VERTEX
8
L1D0
10
0.198
20
-0.981
0
VERTEX
8
L1D0
10
0.1
20
-0.996
0
SEQEND
0
ENDBLK
0
BLOCK
2
rectifier
70
0
10
0
20
0
0
INSERT
8
0
2
FeedbackLoop_only
10
0
20
0
41
1
42
1
50
0
0
INSERT
8
0
2
FeedbackLoop_only
10
11.657
20
-2.934
41
1
42
-1
50
180
0
ENDBLK
0
BLOCK
2
LandingZone
70
0
10
0
20
0
0
INSERT
8
0
2
CIRCLE
10
9
20
73.176
41
1
42
1
50
0
0
INSERT
8
0
2
CIRCLE
10
30.75
20
73.176
41
1
42
1
50
0
0
INSERT
8
0
2
CIRCLE
10
19.872
20
67.668
41
1
42
1
50
0
0
POLYLINE
8
L1D0
70
1
40
0
41
0
66
1
0
VERTEX
8
L1D0
10
19.875
20
0
0
VERTEX
8
L1D0
10
0.516
20
70.14
0
VERTEX
8
L1D0
10
39.234
20
70.14
0
SEQEND
0
ENDBLK
0
BLOCK
2
ResetFalse
70
0
10
0
20
0
0
POLYLINE
8
L0D0_0
70
1
40
0
41
0
66
1
0
VERTEX
8
L0D0_0
10
0.444
20
0
0
VERTEX
8
L0D0_0
10
0
20
0.444
0
VERTEX
8
L0D0_0
10
0
20
0.726
0
VERTEX
8
L0D0_0
10
0.726
20
0
0
SEQEND
0
POLYLINE
8
L0D0_0
70
1
40
0
41
0
66
1
0
VERTEX
8
L0D0_0
10
5.723
20
0
0
VERTEX
8
L0D0_0
10
4.425
20
4.81
0
VERTEX
8
L0D0_0
10
0.444
20
8.802
0
VERTEX
8
L0D0_0
10
0.726
20
8.802
0
VERTEX
8
L0D0_0
10
4.608
20
4.923
0
VERTEX
8
L0D0_0
10
4.617
20
4.891
0
VERTEX
8
L0D0_0
10
5.402
20
2.016
0
VERTEX
8
L0D0_0
10
6.471
20
6.015
0
VERTEX
8
L0D0_0
10
5.723
20
8.802
0
VERTEX
8
L0D0_0
10
5.934
20
8.802
0
VERTEX
8
L0D0_0
10
6.671
20
6.024
0
VERTEX
8
L0D0_0
10
6.671
20
5.992
0
VERTEX
8
L0D0_0
10
5.501
20
1.626
0
VERTEX
8
L0D0_0
10
5.501
20
1.599
0
VERTEX
8
L0D0_0
10
5.934
20
0
0
SEQEND
0
ENDBLK
0
BLOCK
2
corner
70
0
10
0
20
0
0
POLYLINE
8
L1D0
70
1
40
0
41
0
66
1
0
VERTEX
8
L1D0
10
-0.021
20
0
0
VERTEX
8
L1D0
10
-0.327
20
0.061
0
VERTEX
8
L1D0
10
-0.615
20
0.181
0
VERTEX
8
L1D0
10
-0.875
20
0.354
0
VERTEX
8
L1D0
10
-1.095
20
0.574
0
VERTEX
8
L1D0
10
-1.268
20
0.834
0
VERTEX
8
L1D0
10
-1.388
20
1.122
0
VERTEX
8
L1D0
10
-1.449
20
1.428
0
VERTEX
8
L1D0
10
-1.449
20
1.449
0
VERTEX
8
L1D0
10
-1.238
20
1.449
0
VERTEX
8
L1D0
10
-1.238
20
1.448
0
VERTEX
8
L1D0
10
-1.185
20
1.183
0
VERTEX
8
L1D0
10
-1.082
20
0.934
0
VERTEX
8
L1D0
10
-0.931
20
0.709
0
VERTEX
8
L1D0
10
-0.74
20
0.518
0
VERTEX
8
L1D0
10
-0.515
20
0.367
0
VERTEX
8
L1D0
10
-0.266
20
0.264
0
VERTEX
8
L1D0
10
-0.001
20
0.211
0
VERTEX
8
L1D0
10
0
20
0.211
0
VERTEX
8
L1D0
10
0
20
0
0
SEQEND
0
ENDBLK
0
BLOCK
2
end
70
0
10
0
20
0
0
INSERT
8
0
2
rectifier
10
0
20
-8.802
41
1
42
1
50
0
0
INSERT
8
0
2
ResetFalse
10
0
20
0
41
1
42
1
50
0
0
INSERT
8
0
2
corner
10
5.934
20
-14.366
41
1
42
1
50
90
0
POLYLINE
8
L1D0
70
1
40
0
41
0
66
1
0
VERTEX
8
L1D0
10
5.723
20
-14.366
0
VERTEX
8
L1D0
10
5.723
20
-11.736
0
VERTEX
8
L1D0
10
5.934
20
-11.736
0
VERTEX
8
L1D0
10
5.934
20
-14.366
0
SEQEND
0
ENDBLK
0
BLOCK
2
Split
70
0
10
0
20
0
0
POLYLINE
8
L0D0_0
70
1
40
0
41
0
66
1
0
VERTEX
8
L0D0_0
10
0.444
20
0
0
VERTEX
8
L0D0_0
10
0
20
0.444
0
VERTEX
8
L0D0_0
10
0
20
0.726
0
VERTEX
8
L0D0_0
10
0.726
20
0
0
SEQEND
0
POLYLINE
8
L0D0_0
70
1
40
0
41
0
66
1
0
VERTEX
8
L0D0_0
10
5.723
20
0
0
VERTEX
8
L0D0_0
10
5.289
20
1.617
0
VERTEX
8
L0D0_0
10
5.144
20
2.053
0
VERTEX
8
L0D0_0
10
5.145
20
2.053
0
VERTEX
8
L0D0_0
10
4.397
20
4.854
0
VERTEX
8
L0D0_0
10
0.444
20
8.802
0
VERTEX
8
L0D0_0
10
0.726
20
8.802
0
VERTEX
8
L0D0_0
10
4.542
20
4.987
0
VERTEX
8
L0D0_0
10
5.445
20
4.746
0
VERTEX
8
L0D0_0
10
4.635
20
4.755
0
VERTEX
8
L0D0_0
10
5.385
20
1.951
0
VERTEX
8
L0D0_0
10
5.903
20
3.885
0
VERTEX
8
L0D0_0
10
5.726
20
4.462
0
VERTEX
8
L0D0_0
10
4.635
20
4.755
0
VERTEX
8
L0D0_0
10
5.445
20
4.746
0
VERTEX
8
L0D0_0
10
5.849
20
4.638
0
VERTEX
8
L0D0_0
10
6.048
20
4.585
0
VERTEX
8
L0D0_0
10
6.45
20
6.087
0
VERTEX
8
L0D0_0
10
5.723
20
8.802
0
VERTEX
8
L0D0_0
10
5.934
20
8.802
0
VERTEX
8
L0D0_0
10
6.65
20
6.13
0
VERTEX
8
L0D0_0
10
6.914
20
5.868
0
VERTEX
8
L0D0_0
10
6.609
20
5.893
0
VERTEX
8
L0D0_0
10
6.315
20
4.801
0
VERTEX
8
L0D0_0
10
6.734
20
4.36
0
VERTEX
8
L0D0_0
10
8.657
20
3.846
0
VERTEX
8
L0D0_0
10
6.609
20
5.893
0
VERTEX
8
L0D0_0
10
6.914
20
5.868
0
VERTEX
8
L0D0_0
10
7.019
20
5.763
0
VERTEX
8
L0D0_0
10
8.678
20
4.105
0
VERTEX
8
L0D0_0
10
8.951
20
3.775
0
VERTEX
8
L0D0_0
10
12
20
0.726
0
VERTEX
8
L0D0_0
10
12
20
0.444
0
VERTEX
8
L0D0_0
10
8.867
20
3.58
0
VERTEX
8
L0D0_0
10
6.681
20
4.165
0
VERTEX
8
L0D0_0
10
6.098
20
3.829
0
VERTEX
8
L0D0_0
10
5.502
20
1.615
0
VERTEX
8
L0D0_0
10
5.934
20
0
0
SEQEND
0
ENDBLK
0
BLOCK
2
endBit
70
0
10
0
20
0
0
POLYLINE
8
L0D0_0
70
1
40
0
41
0
66
1
0
VERTEX
8
L0D0_0
10
0.444
20
0
0
VERTEX
8
L0D0_0
10
0
20
0.444
0
VERTEX
8
L0D0_0
10
0
20
0.726
0
VERTEX
8
L0D0_0
10
0.726
20
0
0
SEQEND
0
ENDBLK
0
BLOCK
2
Pass
70
0
10
0
20
0
0
POLYLINE
8
L0D0_0
70
1
40
0
41
0
66
1
0
VERTEX
8
L0D0_0
10
0.444
20
0
0
VERTEX
8
L0D0_0
10
0
20
0.444
0
VERTEX
8
L0D0_0
10
0
20
0.726
0
VERTEX
8
L0D0_0
10
0.726
20
0
0
SEQEND
0
POLYLINE
8
L0D0_0
70
1
40
0
41
0
66
1
0
VERTEX
8
L0D0_0
10
5.723
20
0
0
VERTEX
8
L0D0_0
10
5.292
20
1.603
0
VERTEX
8
L0D0_0
10
5.903
20
3.885
0
VERTEX
8
L0D0_0
10
5.726
20
4.462
0
VERTEX
8
L0D0_0
10
4.442
20
4.807
0
VERTEX
8
L0D0_0
10
0.444
20
8.802
0
VERTEX
8
L0D0_0
10
0.726
20
8.802
0
VERTEX
8
L0D0_0
10
4.542
20
4.987
0
VERTEX
8
L0D0_0
10
6.048
20
4.585
0
VERTEX
8
L0D0_0
10
6.45
20
6.087
0
VERTEX
8
L0D0_0
10
5.723
20
8.802
0
VERTEX
8
L0D0_0
10
5.934
20
8.802
0
VERTEX
8
L0D0_0
10
6.662
20
6.09
0
VERTEX
8
L0D0_0
10
6.315
20
4.801
0
VERTEX
8
L0D0_0
10
6.734
20
4.36
0
VERTEX
8
L0D0_0
10
8.963
20
3.763
0
VERTEX
8
L0D0_0
10
12
20
0.726
0
VERTEX
8
L0D0_0
10
12
20
0.444
0
VERTEX
8
L0D0_0
10
8.867
20
3.58
0
VERTEX
8
L0D0_0
10
6.681
20
4.165
0
VERTEX
8
L0D0_0
10
6.098
20
3.829
0
VERTEX
8
L0D0_0
10
5.502
20
1.615
0
VERTEX
8
L0D0_0
10
5.934
20
0
0
SEQEND
0
ENDBLK
0
BLOCK
2
feedback_rectifiers
70
0
10
0
20
0
0
INSERT
8
0
2
rectifier
10
2.285
20
-326.991
41
5
42
5
50
180
0
INSERT
8
0
2
rectifier
10
2.285
20
-268.311
41
5
42
5
50
180
0
INSERT
8
0
2
rectifier
10
2.285
20
-209.631
41
5
42
5
50
180
0
INSERT
8
0
2
rectifier
10
2.285
20
-150.951
41
5
42
5
50
180
0
INSERT
8
0
2
rectifier
10
2.285
20
-92.271
41
5
42
5
50
180
0
INSERT
8
0
2
rectifier
10
2.285
20
-33.591
41
5
42
5
50
180
0
INSERT
8
0
2
corner
10
-27.385
20
-7.245
41
5
42
5
50
270
0
POLYLINE
8
L1D0
70
1
40
0
41
0
66
1
0
VERTEX
8
L1D0
10
-27.385
20
-18.921
0
VERTEX
8
L1D0
10
-27.385
20
-7.246
0
VERTEX
8
L1D0
10
-26.33
20
-7.246
0
VERTEX
8
L1D0
10
-26.33
20
-18.921
0
SEQEND
0
POLYLINE
8
L1D0
70
1
40
0
41
0
66
1
0
VERTEX
8
L1D0
10
-20.14
20
-1.055
0
VERTEX
8
L1D0
10
-20.14
20
0
0
VERTEX
8
L1D0
10
0
20
0
0
VERTEX
8
L1D0
10
0
20
-1.055
0
SEQEND
0
ENDBLK
0
BLOCK
2
feedback_corner
70
0
10
0
20
0
0
INSERT
8
0
2
corner
10
-104.14
20
0
41
5
42
5
50
0
0
POLYLINE
8
L1D0
70
1
40
0
41
0
66
1
0
VERTEX
8
L1D0
10
-104.14
20
0
0
VERTEX
8
L1D0
10
-104.14
20
1.055
0
VERTEX
8
L1D0
10
0
20
1.055
0
VERTEX
8
L1D0
10
0
20
0
0
SEQEND
0
ENDBLK
0
BLOCK
2
ResetTrue
70
0
10
0
20
0
0
POLYLINE
8
L0D0_0
70
1
40
0
41
0
66
1
0
VERTEX
8
L0D0_0
10
0.444
20
0
0
VERTEX
8
L0D0_0
10
0
20
0.444
0
VERTEX
8
L0D0_0
10
0
20
0.726
0
VERTEX
8
L0D0_0
10
0.726
20
0
0
SEQEND
0
POLYLINE
8
L0D0_0
70
1
40
0
41
0
66
1
0
VERTEX
8
L0D0_0
10
12
20
0.444
0
VERTEX
8
L0D0_0
10
8.867
20
3.58
0
VERTEX
8
L0D0_0
10
4.443
20
4.809
0
VERTEX
8
L0D0_0
10
0.444
20
8.802
0
VERTEX
8
L0D0_0
10
0.726
20
8.802
0
VERTEX
8
L0D0_0
10
4.542
20
4.987
0
VERTEX
8
L0D0_0
10
8.577
20
3.867
0
VERTEX
8
L0D0_0
10
6.482
20
5.964
0
VERTEX
8
L0D0_0
10
5.723
20
8.802
0
VERTEX
8
L0D0_0
10
5.934
20
8.802
0
VERTEX
8
L0D0_0
10
6.671
20
6.052
0
VERTEX
8
L0D0_0
10
12
20
0.726
0
SEQEND
0
ENDBLK
0
BLOCK
2
SplitTop
70
0
10
0
20
0
0
POLYLINE
8
L0D0_0
70
1
40
0
41
0
66
1
0
VERTEX
8
L0D0_0
10
0.444
20
0
0
VERTEX
8
L0D0_0
10
0
20
0.444
0
VERTEX
8
L0D0_0
10
0
20
0.726
0
VERTEX
8
L0D0_0
10
0.726
20
0
0
SEQEND
0
POLYLINE
8
L0D0_0
70
1
40
0
41
0
66
1
0
VERTEX
8
L0D0_0
10
5.723
20
0
0
VERTEX
8
L0D0_0
10
5.292
20
1.606
0
VERTEX
8
L0D0_0
10
5.903
20
3.885
0
VERTEX
8
L0D0_0
10
5.726
20
4.462
0
VERTEX
8
L0D0_0
10
4.446
20
4.806
0
VERTEX
8
L0D0_0
10
0.444
20
8.802
0
VERTEX
8
L0D0_0
10
0.726
20
8.802
0
VERTEX
8
L0D0_0
10
4.542
20
4.987
0
VERTEX
8
L0D0_0
10
5.445
20
4.746
0
VERTEX
8
L0D0_0
10
5.849
20
4.638
0
VERTEX
8
L0D0_0
10
6.048
20
4.585
0
VERTEX
8
L0D0_0
10
6.398
20
5.893
0
VERTEX
8
L0D0_0
10
6.609
20
5.893
0
VERTEX
8
L0D0_0
10
6.315
20
4.801
0
VERTEX
8
L0D0_0
10
6.734
20
4.36
0
VERTEX
8
L0D0_0
10
8.657
20
3.846
0
VERTEX
8
L0D0_0
10
6.609
20
5.893
0
VERTEX
8
L0D0_0
10
6.398
20
5.893
0
VERTEX
8
L0D0_0
10
6.45
20
6.087
0
VERTEX
8
L0D0_0
10
5.723
20
8.802
0
VERTEX
8
L0D0_0
10
5.934
20
8.802
0
VERTEX
8
L0D0_0
10
6.65
20
6.13
0
VERTEX
8
L0D0_0
10
6.914
20
5.868
0
VERTEX
8
L0D0_0
10
7.019
20
5.763
0
VERTEX
8
L0D0_0
10
8.678
20
4.105
0
VERTEX
8
L0D0_0
10
8.951
20
3.775
0
VERTEX
8
L0D0_0
10
12
20
0.726
0
VERTEX
8
L0D0_0
10
12
20
0.444
0
VERTEX
8
L0D0_0
10
8.867
20
3.58
0
VERTEX
8
L0D0_0
10
6.681
20
4.165
0
VERTEX
8
L0D0_0
10
6.098
20
3.829
0
VERTEX
8
L0D0_0
10
5.502
20
1.615
0
VERTEX
8
L0D0_0
10
5.934
20
0
0
SEQEND
0
ENDBLK
0
BLOCK
2
SplitLeft
70
0
10
0
20
0
0
POLYLINE
8
L0D0_0
70
1
40
0
41
0
66
1
0
VERTEX
8
L0D0_0
10
0.444
20
0
0
VERTEX
8
L0D0_0
10
0
20
0.444
0
VERTEX
8
L0D0_0
10
0
20
0.726
0
VERTEX
8
L0D0_0
10
0.726
20
0
0
SEQEND
0
POLYLINE
8
L0D0_0
70
1
40
0
41
0
66
1
0
VERTEX
8
L0D0_0
10
5.723
20
0
0
VERTEX
8
L0D0_0
10
5.289
20
1.617
0
VERTEX
8
L0D0_0
10
5.144
20
2.053
0
VERTEX
8
L0D0_0
10
5.145
20
2.053
0
VERTEX
8
L0D0_0
10
4.424
20
4.755
0
VERTEX
8
L0D0_0
10
4.635
20
4.755
0
VERTEX
8
L0D0_0
10
5.385
20
1.951
0
VERTEX
8
L0D0_0
10
5.903
20
3.885
0
VERTEX
8
L0D0_0
10
5.726
20
4.462
0
VERTEX
8
L0D0_0
10
4.635
20
4.755
0
VERTEX
8
L0D0_0
10
4.424
20
4.755
0
VERTEX
8
L0D0_0
10
4.397
20
4.854
0
VERTEX
8
L0D0_0
10
0.444
20
8.802
0
VERTEX
8
L0D0_0
10
0.726
20
8.802
0
VERTEX
8
L0D0_0
10
4.542
20
4.987
0
VERTEX
8
L0D0_0
10
5.445
20
4.746
0
VERTEX
8
L0D0_0
10
5.849
20
4.638
0
VERTEX
8
L0D0_0
10
6.048
20
4.585
0
VERTEX
8
L0D0_0
10
6.45
20
6.087
0
VERTEX
8
L0D0_0
10
5.723
20
8.802
0
VERTEX
8
L0D0_0
10
5.934
20
8.802
0
VERTEX
8
L0D0_0
10
6.663
20
6.089
0
VERTEX
8
L0D0_0
10
6.315
20
4.801
0
VERTEX
8
L0D0_0
10
6.734
20
4.36
0
VERTEX
8
L0D0_0
10
8.963
20
3.763
0
VERTEX
8
L0D0_0
10
12
20
0.726
0
VERTEX
8
L0D0_0
10
12
20
0.444
0
VERTEX
8
L0D0_0
10
8.867
20
3.58
0
VERTEX
8
L0D0_0
10
6.681
20
4.165
0
VERTEX
8
L0D0_0
10
6.098
20
3.829
0
VERTEX
8
L0D0_0
10
5.502
20
1.615
0
VERTEX
8
L0D0_0
10
5.934
20
0
0
SEQEND
0
ENDBLK
0
BLOCK
2
LZ
70
0
10
0
20
0
0
INSERT
8
0
2
LandingZone
10
-18.792
20
0.888
41
1
42
1
50
30
0
INSERT
8
0
2
LandingZone
10
-58.534
20
66.668
41
1
42
1
50
15
0
INSERT
8
0
2
LandingZone
10
-80.101
20
279.35
41
1
42
1
50
0
0
INSERT
8
0
2
LandingZone
10
-80.101
20
210.35
41
1
42
1
50
0
0
INSERT
8
0
2
LandingZone
10
-80.101
20
348.35
41
1
42
1
50
0
0
INSERT
8
0
2
LandingZone
10
-80.101
20
141.35
41
1
42
1
50
0
0
INSERT
8
0
2
LandingZone
10
-80.101
20
210.35
41
1
42
1
50
0
0
INSERT
8
0
2
LandingZone
10
-80.101
20
279.35
41
1
42
1
50
0
0
INSERT
8
0
2
LandingZone
10
-80.101
20
348.35
41
1
42
1
50
0
0
INSERT
8
0
2
LandingZone
10
-80.101
20
417.35
41
1
42
1
50
0
0
INSERT
8
0
2
corner
10
-61.573
20
500.87
41
1
42
1
50
180
0
INSERT
8
0
2
PIE
10
-60.229
20
494.144
41
1
42
1
50
0
0
POLYLINE
8
L1D0
70
1
40
0
41
0
66
1
0
VERTEX
8
L1D0
10
0.444
20
8.802
0
VERTEX
8
L1D0
10
-6.785
20
16.03
0
VERTEX
8
L1D0
10
-6.644
20
16.171
0
VERTEX
8
L1D0
10
0.726
20
8.802
0
SEQEND
0
POLYLINE
8
L1D0
70
1
40
0
41
0
66
1
0
VERTEX
8
L1D0
10
-61.244
20
144.925
0
VERTEX
8
L1D0
10
-63.638
20
153.857
0
VERTEX
8
L1D0
10
-59.368
20
155
0
VERTEX
8
L1D0
10
-56.974
20
146.068
0
SEQEND
0
POLYLINE
8
L1D0
70
1
40
0
41
0
66
1
0
VERTEX
8
L1D0
10
-41.632
20
75.757
0
VERTEX
8
L1D0
10
-46.256
20
83.765
0
VERTEX
8
L1D0
10
-42.428
20
85.973
0
VERTEX
8
L1D0
10
-37.804
20
77.965
0
SEQEND
0
POLYLINE
8
L1D0
70
1
40
0
41
0
66
1
0
VERTEX
8
L1D0
10
-60.335
20
493.11
0
VERTEX
8
L1D0
10
-60.335
20
499.421
0
VERTEX
8
L1D0
10
-60.124
20
499.421
0
VERTEX
8
L1D0
10
-60.124
20
493.11
0
SEQEND
0
POLYLINE
8
L1D0
70
1
40
0
41
0
66
1
0
VERTEX
8
L1D0
10
-61.573
20
500.659
0
VERTEX
8
L1D0
10
-62.573
20
500.729
0
VERTEX
8
L1D0
10
-62.573
20
500.87
0
VERTEX
8
L1D0
10
-61.573
20
500.87
0
SEQEND
0
POLYLINE
8
L1D10
70
1
40
0
41
0
66
1
0
VERTEX
8
L1D10
10
-0.193
20
0
0
VERTEX
8
L1D10
10
-0.193
20
0.192
0
VERTEX
8
L1D10
10
0
20
0.192
0
VERTEX
8
L1D10
10
0
20
0
0
SEQEND
0
ENDBLK
0
ENDSEC
0
SECTION
2
ENTITIES
0
INSERT
8
0
2
LZ
10
0
20
0
41
1
42
1
50
0
0
INSERT
8
0
2
Pass
10
0
20
-484.11
41
1
42
1
50
0
0
INSERT
8
0
2
Pass
10
0
20
-475.308
41
1
42
1
50
0
0
INSERT
8
0
2
Pass
10
0
20
-466.506
41
1
42
1
50
0
0
INSERT
8
0
2
Pass
10
0
20
-457.704
41
1
42
1
50
0
0
INSERT
8
0
2
Pass
10
0
20
-448.902
41
1
42
1
50
0
0
INSERT
8
0
2
Pass
10
0
20
-440.1
41
1
42
1
50
0
0
INSERT
8
0
2
Pass
10
0
20
-431.298
41
1
42
1
50
0
0
INSERT
8
0
2
Pass
10
0
20
-422.496
41
1
42
1
50
0
0
INSERT
8
0
2
Pass
10
0
20
-413.694
41
1
42
1
50
0
0
INSERT
8
0
2
Pass
10
0
20
-404.892
41
1
42
1
50
0
0
INSERT
8
0
2
Pass
10
0
20
-396.09
41
1
42
1
50
0
0
INSERT
8
0
2
Pass
10
0
20
-387.288
41
1
42
1
50
0
0
INSERT
8
0
2
Pass
10
0
20
-378.486
41
1
42
1
50
0
0
INSERT
8
0
2
Pass
10
0
20
-369.684
41
1
42
1
50
0
0
INSERT
8
0
2
Pass
10
0
20
-360.882
41
1
42
1
50
0
0
INSERT
8
0
2
Pass
10
0
20
-352.08
41
1
42
1
50
0
0
INSERT
8
0
2
Pass
10
0
20
-343.278
41
1
42
1
50
0
0
INSERT
8
0
2
Pass
10
0
20
-334.476
41
1
42
1
50
0
0
INSERT
8
0
2
Pass
10
0
20
-325.674
41
1
42
1
50
0
0
INSERT
8
0
2
Pass
10
0
20
-316.872
41
1
42
1
50
0
0
INSERT
8
0
2
Pass
10
0
20
-308.07
41
1
42
1
50
0
0
INSERT
8
0
2
Pass
10
0
20
-299.268
41
1
42
1
50
0
0
INSERT
8
0
2
Pass
10
0
20
-290.466
41
1
42
1
50
0
0
INSERT
8
0
2
Pass
10
0
20
-281.664
41
1
42
1
50
0
0
INSERT
8
0
2
Pass
10
0
20
-272.862
41
1
42
1
50
0
0
INSERT
8
0
2
Pass
10
0
20
-264.06
41
1
42
1
50
0
0
INSERT
8
0
2
Pass
10
0
20
-255.258
41
1
42
1
50
0
0
INSERT
8
0
2
Pass
10
0
20
-246.456
41
1
42
1
50
0
0
INSERT
8
0
2
Pass
10
0
20
-237.654
41
1
42
1
50
0
0
INSERT
8
0
2
Pass
10
0
20
-228.852
41
1
42
1
50
0
0
INSERT
8
0
2
Pass
10
0
20
-220.05
41
1
42
1
50
0
0
INSERT
8
0
2
Pass
10
0
20
-211.248
41
1
42
1
50
0
0
INSERT
8
0
2
Pass
10
0
20
-202.446
41
1
42
1
50
0
0
INSERT
8
0
2
Pass
10
0
20
-193.644
41
1
42
1
50
0
0
INSERT
8
0
2
Pass
10
0
20
-184.842
41
1
42
1
50
0
0
INSERT
8
0
2
Pass
10
0
20
-176.04
41
1
42
1
50
0
0
INSERT
8
0
2
Pass
10
0
20
-167.238
41
1
42
1
50
0
0
INSERT
8
0
2
Pass
10
0
20
-158.436
41
1
42
1
50
0
0
INSERT
8
0
2
Pass
10
0
20
-149.634
41
1
42
1
50
0
0
INSERT
8
0
2
Pass
10
0
20
-140.832
41
1
42
1
50
0
0
INSERT
8
0
2
Pass
10
0
20
-132.03
41
1
42
1
50
0
0
INSERT
8
0
2
Pass
10
0
20
-123.228
41
1
42
1
50
0
0
INSERT
8
0
2
Pass
10
0
20
-114.426
41
1
42
1
50
0
0
INSERT
8
0
2
Pass
10
0
20
-105.624
41
1
42
1
50
0
0
INSERT
8
0
2
Pass
10
0
20
-96.822
41
1
42
1
50
0
0
INSERT
8
0
2
Pass
10
0
20
-88.02
41
1
42
1
50
0
0
INSERT
8
0
2
Pass
10
0
20
-79.218
41
1
42
1
50
0
0
INSERT
8
0
2
Pass
10
0
20
-70.416
41
1
42
1
50
0
0
INSERT
8
0
2
Pass
10
0
20
-61.614
41
1
42
1
50
0
0
INSERT
8
0
2
Pass
10
0
20
-52.812
41
1
42
1
50
0
0
INSERT
8
0
2
Pass
10
0
20
-44.01
41
1
42
1
50
0
0
INSERT
8
0
2
Pass
10
0
20
-35.208
41
1
42
1
50
0
0
INSERT
8
0
2
Pass
10
0
20
-26.406
41
1
42
1
50
0
0
INSERT
8
0
2
Split
10
0
20
0
41
1
42
1
50
0
0
INSERT
8
0
2
Pass
10
0
20
-8.802
41
1
42
1
50
0
0
INSERT
8
0
2
Pass
10
12.002
20
-8.802
41
1
42
1
50
0
0
INSERT
8
0
2
Split
10
12.002
20
0
41
1
42
1
50
0
0
INSERT
8
0
2
ResetFalse
10
24.002
20
0
41
1
42
1
50
0
0
INSERT
8
0
2
SplitLeft
10
0
20
-17.604
41
1
42
1
50
0
0
INSERT
8
0
2
end
10
0
20
-492.912
41
1
42
1
50
0
0
INSERT
8
0
2
SplitTop
10
12.001
20
-17.604
41
1
42
1
50
0
0
INSERT
8
0
2
ResetTrue
10
24.002
20
-8.802
41
1
42
1
50
0
0
INSERT
8
0
2
feedback_corner
10
0
20
-509.571
41
1
42
1
50
0
0
INSERT
8
0
2
endBit
10
24.002
20
-17.604
41
1
42
1
50
0
0
INSERT
8
0
2
feedback_rectifiers
10
-84
20
501.714
41
1
42
1
50
0
0
POLYLINE
8
L1D0
70
1
40
0
41
0
66
1
0
VERTEX
8
L1D0
10
-111.385
20
-502.326
0
VERTEX
8
L1D0
10
-111.385
20
157.119
0
VERTEX
8
L1D0
10
-110.33
20
157.119
0
VERTEX
8
L1D0
10
-110.33
20
-502.326
0
SEQEND
0
POLYLINE
8
L1D0
70
1
40
0
41
0
66
1
0
VERTEX
8
L1D0
10
-84
20
500.659
0
VERTEX
8
L1D0
10
-84
20
501.714
0
VERTEX
8
L1D0
10
8.51
20
501.714
0
VERTEX
8
L1D0
10
8.51
20
501.713
0
VERTEX
8
L1D0
10
128.563
20
501.081
0
VERTEX
8
L1D0
10
128.563
20
500.659
0
SEQEND
0
POLYLINE
8
L1D0
70
1
40
0
41
0
66
1
0
VERTEX
8
L1D0
10
0
20
-509.571
0
VERTEX
8
L1D0
10
0
20
-508.516
0
VERTEX
8
L1D0
10
372
20
-508.516
0
VERTEX
8
L1D0
10
372
20
-509.458
0
SEQEND
0
ENDSEC
0
EOF
