0
SECTION
2
HEADER
9
$ACADVER
1
AC1006
0
ENDSEC
0
SECTION
2
TABLES
0
TABLE
2
LAYER
70
5
0
LAYER
70
0
62
1
6
CONTINUOUS
2
L0D0_0
0
LAYER
70
0
62
2
6
CONTINUOUS
2
L1D0
0
LAYER
70
0
62
3
6
CONTINUOUS
2
L1D1000
0
LAYER
70
0
62
4
6
CONTINUOUS
2
L1D1039
0
LAYER
70
0
62
5
6
CONTINUOUS
2
L2D1_Nirvana
0
ENDTAB
0
ENDSEC
0
SECTION
2
BLOCKS
0
BLOCK
2
FeedbackLoop_only
70
0
10
0
20
0
0
LWPOLYLINE
8
L0D0_0
90
49
70
1
43
0
10
0.21
20
0
10
0
20
0.029
10
0.21
20
0.814
10
0
20
1.59
10
0.21
20
1.619
10
2.224
20
4.935
10
2.248
20
5.095
10
2.23
20
5.271
10
2.178
20
5.441
10
2.094
20
5.593
10
1.984
20
5.725
10
1.852
20
5.835
10
1.7
20
5.919
10
1.53
20
5.971
10
1.346
20
5.989
10
1.23
20
5.981
10
1.114
20
5.959
10
1.006
20
5.921
10
0.904
20
5.869
10
0.81
20
5.809
10
0.761
20
5.766
10
0.698
20
5.533
10
0.21
20
3.71
10
0
20
3.739
10
0.21
20
4.523
10
0
20
5.3
10
0.21
20
5.329
10
0.235
20
5.368
10
0.414
20
5.665
10
0.492
20
5.775
10
0.584
20
5.877
10
0.69
20
5.969
10
0.804
20
6.045
10
0.93
20
6.105
10
1.062
20
6.151
10
1.202
20
6.181
10
1.35
20
6.189
10
1.57
20
6.167
10
1.776
20
6.103
10
1.964
20
6.003
10
1.981
20
5.989
10
2.128
20
5.869
10
2.262
20
5.705
10
2.362
20
5.517
10
2.426
20
5.311
10
2.446
20
5.111
10
2.433
20
4.966
10
2.412
20
4.858
10
0.791
20
2.171
0
ENDBLK
0
BLOCK
2
LandingZone
70
0
10
0
20
0
0
LWPOLYLINE
8
L1D0
90
97
70
1
43
0
10
11.994
20
0
10
-0.912
20
41.19
10
-1.021
20
41.615
10
-1.103
20
42.043
10
-1.158
20
42.477
10
-1.185
20
42.912
10
-1.185
20
43.352
10
-1.158
20
43.787
10
-1.103
20
44.221
10
-1.021
20
44.649
10
-0.912
20
45.074
10
-0.777
20
45.488
10
-0.616
20
45.895
10
-0.43
20
46.29
10
-0.22
20
46.673
10
0.014
20
47.042
10
0.27
20
47.395
10
0.549
20
47.732
10
0.849
20
48.05
10
1.167
20
48.35
10
1.503
20
48.628
10
1.856
20
48.884
10
2.226
20
49.119
10
2.608
20
49.329
10
3.004
20
49.515
10
3.411
20
49.676
10
3.825
20
49.81
10
4.249
20
49.92
10
4.678
20
50.001
10
5.111
20
50.056
10
5.547
20
50.084
10
5.986
20
50.084
10
6.422
20
50.056
10
6.856
20
50.001
10
7.285
20
49.92
10
7.708
20
49.81
10
8.123
20
49.676
10
8.53
20
49.515
10
8.925
20
49.329
10
9.307
20
49.119
10
9.677
20
48.884
10
10.031
20
48.628
10
10.366
20
48.35
10
10.684
20
48.05
10
10.984
20
47.732
10
11.263
20
47.395
10
11.519
20
47.042
10
11.753
20
46.673
10
11.797
20
46.594
10
12.191
20
46.594
10
12.234
20
46.673
10
12.468
20
47.042
10
12.724
20
47.395
10
13.003
20
47.732
10
13.303
20
48.05
10
13.621
20
48.35
10
13.957
20
48.628
10
14.31
20
48.884
10
14.68
20
49.119
10
15.062
20
49.329
10
15.458
20
49.515
10
15.865
20
49.676
10
16.279
20
49.81
10
16.703
20
49.92
10
17.132
20
50.001
10
17.565
20
50.056
10
18.001
20
50.084
10
18.44
20
50.084
10
18.876
20
50.056
10
19.31
20
50.001
10
19.739
20
49.92
10
20.162
20
49.81
10
20.577
20
49.676
10
20.984
20
49.515
10
21.379
20
49.329
10
21.761
20
49.119
10
22.131
20
48.884
10
22.485
20
48.628
10
22.82
20
48.35
10
23.138
20
48.05
10
23.438
20
47.732
10
23.717
20
47.395
10
23.973
20
47.042
10
24.207
20
46.673
10
24.418
20
46.29
10
24.604
20
45.895
10
24.764
20
45.488
10
24.9
20
45.074
10
25.009
20
44.649
10
25.09
20
44.221
10
25.145
20
43.787
10
25.172
20
43.352
10
25.172
20
42.912
10
25.145
20
42.477
10
25.09
20
42.043
10
25.009
20
41.615
10
24.9
20
41.19
0
ENDBLK
0
BLOCK
2
LZ
70
0
10
0
20
0
0
INSERT
8
0
2
LandingZone
10
-24.305
20
12.554
41
1
42
1
50
15
0
INSERT
8
0
2
LandingZone
10
-37.529
20
63.138
41
1
42
1
50
0
0
INSERT
8
0
2
LandingZone
10
-37.529
20
109.138
41
1
42
1
50
0
0
INSERT
8
0
2
LandingZone
10
-37.529
20
201.138
41
1
42
1
50
0
0
INSERT
8
0
2
LandingZone
10
-37.529
20
155.138
41
1
42
1
50
0
0
INSERT
8
0
2
LandingZone
10
-37.529
20
247.138
41
1
42
1
50
0
0
LWPOLYLINE
8
L0D0_0
90
4
70
1
43
0
10
-8.606
20
0
10
-12.98
20
16.319
10
-12.816
20
16.321
10
-8.466
20
0
0
LWPOLYLINE
8
L1D0
90
12
70
1
43
0
10
-21.553
20
53.541
10
-23.066
20
55.038
10
-24.517
20
57.924
10
-25.413
20
60.83
10
-25.936
20
63.81
10
-26.026
20
64.707
10
-25.043
20
64.709
10
-24.948
20
63.959
10
-24.444
20
61.077
10
-23.577
20
58.266
10
-22.261
20
55.73
10
-20.842
20
54.321
0
ENDBLK
0
BLOCK
2
split
70
0
10
0
20
0
0
LWPOLYLINE
8
L0D0_0
90
39
70
1
43
0
10
0.034
20
0
10
0.323
20
1.072
10
0.386
20
1.371
10
0.887
20
3.238
10
0.034
20
6.42
10
0.173
20
6.42
10
1.016
20
3.267
10
1.182
20
3.101
10
0.992
20
3.101
10
0.491
20
1.233
10
1.434
20
2.177
10
1.524
20
2.569
10
0.992
20
3.101
10
1.182
20
3.101
10
1.654
20
2.629
10
1.751
20
2.533
10
2.484
20
3.266
10
3.327
20
6.42
10
3.465
20
6.42
10
2.614
20
3.224
10
2.647
20
3.1
10
2.511
20
3.1
10
1.978
20
2.567
10
2.072
20
2.173
10
3.01
20
1.236
10
2.511
20
3.1
10
2.647
20
3.1
10
2.704
20
2.888
10
3.109
20
1.379
10
3.109
20
1.378
10
3.11
20
1.375
10
3.157
20
1.097
10
3.465
20
0
10
3.327
20
0
10
3.043
20
1.012
10
1.978
20
2.079
10
1.527
20
2.079
10
0.446
20
1
10
0.173
20
0
0
LWPOLYLINE
8
L0D0_0
90
4
70
1
43
0
10
0.034
20
-10
10
0.034
20
0
10
0.173
20
0
10
0.173
20
-10
0
LWPOLYLINE
8
L0D0_0
90
4
70
1
43
0
10
3.327
20
-10
10
3.327
20
0
10
3.465
20
0
10
3.465
20
-10
0
ENDBLK
0
BLOCK
2
end_funnel
70
0
10
0
20
0
0
INSERT
8
0
2
FeedbackLoop_only
10
1.9
20
-9.293
41
1.5
42
-1.5
50
180
0
INSERT
8
0
2
FeedbackLoop_only
10
1.585
20
-11.678
41
1.5
42
1.5
50
0
0
LWPOLYLINE
8
L0D0_0
90
4
70
1
43
0
10
1.585
20
-40
10
1.585
20
-11.634
10
1.9
20
-11.678
10
1.9
20
-40
0
LWPOLYLINE
8
L0D0_0
90
4
70
1
43
0
10
1.9
20
-6.908
10
1.585
20
-6.865
10
1.585
20
-6.069
10
1.9
20
-6.113
0
LWPOLYLINE
8
L0D0_0
90
4
70
1
43
0
10
1.9
20
-1.343
10
1.585
20
-1.3
10
1.632
20
0
10
1.866
20
0
0
LWPOLYLINE
8
L0D0_0
90
9
70
1
43
0
10
1.632
20
0
10
1.632
20
0.46
10
0.034
20
6.421
10
0.173
20
6.421
10
1.749
20
0.517
10
3.327
20
6.421
10
3.465
20
6.421
10
1.866
20
0.46
10
1.866
20
0
0
ENDBLK
0
ENDSEC
0
SECTION
2
ENTITIES
0
INSERT
8
0
2
LZ
10
22.29
20
369.628
41
1.5
42
-1.5
50
180
0
INSERT
8
0
2
split
10
30
20
360
41
1.5
42
1.5
50
0
0
INSERT
8
0
2
LZ
10
42.96
20
369.628
41
1.5
42
1.5
50
0
0
INSERT
8
0
2
end_funnel
10
30
20
335.369
41
1.5
42
1.5
50
0
0
ENDSEC
0
EOF
