0
SECTION
2
HEADER
9
$ACADVER
1
AC1006
0
ENDSEC
0
SECTION
2
TABLES
0
TABLE
2
LAYER
70
5
0
LAYER
70
0
62
1
6
CONTINUOUS
2
L0D0_0
0
LAYER
70
0
62
2
6
CONTINUOUS
2
L1D1000
0
LAYER
70
0
62
3
6
CONTINUOUS
2
L1D1039
0
LAYER
70
0
62
4
6
CONTINUOUS
2
L1D0
0
LAYER
70
0
62
5
6
CONTINUOUS
2
L1D10
0
ENDTAB
0
ENDSEC
0
SECTION
2
BLOCKS
0
BLOCK
2
0
70
0
10
0
20
0
0
LWPOLYLINE
8
L1D10
90
17
70
1
43
0
10
0.375
20
0
10
0
20
0.375
10
0
20
2.25
10
0.375
20
2.625
10
1.5
20
2.625
10
1.875
20
2.25
10
0.563
20
2.25
10
0.375
20
2.063
10
0.375
20
0.563
10
0.563
20
0.375
10
1.313
20
0.375
10
1.5
20
0.563
10
1.5
20
2.063
10
1.313
20
2.25
10
1.875
20
2.25
10
1.875
20
0.375
10
1.5
20
0
0
LWPOLYLINE
8
L1D10
90
4
70
1
43
0
10
0.75
20
0.938
10
0.75
20
1.688
10
1.125
20
1.688
10
1.125
20
0.938
0
ENDBLK
0
BLOCK
2
9
70
0
10
0
20
0
0
LWPOLYLINE
8
L1D10
90
22
70
1
43
0
10
0.375
20
0
10
0.375
20
0.375
10
0.938
20
0.375
10
1.313
20
0.75
10
1.313
20
0.938
10
0.375
20
0.938
10
0
20
1.313
10
1.313
20
1.313
10
1.5
20
1.5
10
1.5
20
2.063
10
1.313
20
2.25
10
0.563
20
2.25
10
0.375
20
2.063
10
0.375
20
1.5
10
0.563
20
1.313
10
0
20
1.313
10
0
20
2.25
10
0.375
20
2.625
10
1.5
20
2.625
10
1.875
20
2.25
10
1.875
20
0.75
10
1.125
20
0
0
ENDBLK
0
BLOCK
2
8
70
0
10
0
20
0
0
LWPOLYLINE
8
L1D10
90
32
70
1
43
0
10
0.375
20
0
10
0
20
0.375
10
0
20
1.125
10
0.188
20
1.313
10
0
20
1.5
10
0
20
2.25
10
0.375
20
2.625
10
1.5
20
2.625
10
1.875
20
2.25
10
0.563
20
2.25
10
0.375
20
2.063
10
0.375
20
1.688
10
0.563
20
1.5
10
1.313
20
1.5
10
1.5
20
1.688
10
1.5
20
2.063
10
1.313
20
2.25
10
1.875
20
2.25
10
1.875
20
1.5
10
1.688
20
1.313
10
1.875
20
1.125
10
0.563
20
1.125
10
0.375
20
0.938
10
0.375
20
0.563
10
0.563
20
0.375
10
1.313
20
0.375
10
1.5
20
0.563
10
1.5
20
0.938
10
1.313
20
1.125
10
1.875
20
1.125
10
1.875
20
0.375
10
1.5
20
0
0
ENDBLK
0
BLOCK
2
7
70
0
10
0
20
0
0
LWPOLYLINE
8
L1D10
90
10
70
1
43
0
10
0.75
20
0
10
0.75
20
1.313
10
1.5
20
2.063
10
1.5
20
2.25
10
0
20
2.25
10
0
20
2.625
10
1.875
20
2.625
10
1.875
20
1.875
10
1.125
20
1.125
10
1.125
20
0
0
ENDBLK
0
BLOCK
2
6
70
0
10
0
20
0
0
LWPOLYLINE
8
L1D10
90
22
70
1
43
0
10
0.375
20
0
10
0
20
0.375
10
0
20
1.875
10
0.75
20
2.625
10
1.5
20
2.625
10
1.5
20
2.25
10
0.938
20
2.25
10
0.563
20
1.875
10
0.563
20
1.688
10
1.5
20
1.688
10
1.875
20
1.313
10
0.563
20
1.313
10
0.375
20
1.125
10
0.375
20
0.563
10
0.563
20
0.375
10
1.313
20
0.375
10
1.5
20
0.563
10
1.5
20
1.125
10
1.313
20
1.313
10
1.875
20
1.313
10
1.875
20
0.375
10
1.5
20
0
0
ENDBLK
0
BLOCK
2
5
70
0
10
0
20
0
0
LWPOLYLINE
8
L1D10
90
20
70
1
43
0
10
0.375
20
0
10
0
20
0.375
10
0
20
0.75
10
0.375
20
0.75
10
0.375
20
0.563
10
0.563
20
0.375
10
1.313
20
0.375
10
1.5
20
0.563
10
1.5
20
1.125
10
1.313
20
1.313
10
0
20
1.313
10
0
20
2.625
10
1.875
20
2.625
10
1.875
20
2.25
10
0.375
20
2.25
10
0.375
20
1.688
10
1.5
20
1.688
10
1.875
20
1.313
10
1.875
20
0.375
10
1.5
20
0
0
ENDBLK
0
BLOCK
2
4
70
0
10
0
20
0
0
LWPOLYLINE
8
L1D10
90
18
70
1
43
0
10
1.125
20
0
10
1.125
20
0.563
10
0
20
0.563
10
0
20
0.938
10
1.125
20
0.938
10
1.125
20
1.875
10
0.938
20
1.875
10
0.375
20
1.313
10
0.375
20
0.938
10
0
20
0.938
10
0
20
1.5
10
1.125
20
2.625
10
1.5
20
2.625
10
1.5
20
0.938
10
1.875
20
0.938
10
1.875
20
0.563
10
1.5
20
0.563
10
1.5
20
0
0
ENDBLK
0
BLOCK
2
3
70
0
10
0
20
0
0
LWPOLYLINE
8
L1D10
90
29
70
1
43
0
10
0.375
20
0
10
0
20
0.375
10
0
20
0.75
10
0.375
20
0.75
10
0.375
20
0.563
10
0.563
20
0.375
10
1.313
20
0.375
10
1.5
20
0.563
10
1.5
20
0.938
10
1.313
20
1.125
10
0.75
20
1.125
10
0.75
20
1.5
10
1.313
20
1.5
10
1.5
20
1.688
10
1.5
20
2.063
10
1.313
20
2.25
10
0.563
20
2.25
10
0.375
20
2.063
10
0.375
20
1.875
10
0
20
1.875
10
0
20
2.25
10
0.375
20
2.625
10
1.5
20
2.625
10
1.875
20
2.25
10
1.875
20
1.5
10
1.688
20
1.313
10
1.875
20
1.125
10
1.875
20
0.375
10
1.5
20
0
0
ENDBLK
0
BLOCK
2
2
70
0
10
0
20
0
0
LWPOLYLINE
8
L1D10
90
22
70
1
43
0
10
0
20
0
10
0
20
0.938
10
0.375
20
1.313
10
1.313
20
1.313
10
1.5
20
1.5
10
1.5
20
2.063
10
1.313
20
2.25
10
0.563
20
2.25
10
0.375
20
2.063
10
0.375
20
1.875
10
0
20
1.875
10
0
20
2.25
10
0.375
20
2.625
10
1.5
20
2.625
10
1.875
20
2.25
10
1.875
20
1.313
10
1.5
20
0.938
10
0.563
20
0.938
10
0.375
20
0.75
10
0.375
20
0.375
10
1.875
20
0.375
10
1.875
20
0
0
ENDBLK
0
BLOCK
2
1
70
0
10
0
20
0
0
LWPOLYLINE
8
L1D10
90
13
70
1
43
0
10
0
20
0
10
0
20
0.375
10
0.75
20
0.375
10
0.75
20
1.875
10
0.563
20
1.875
10
0.188
20
1.5
10
0
20
1.5
10
0
20
1.875
10
0.75
20
2.625
10
1.125
20
2.625
10
1.125
20
0.375
10
1.875
20
0.375
10
1.875
20
0
0
ENDBLK
0
BLOCK
2
A
70
0
10
0
20
0
0
LWPOLYLINE
8
L1D10
90
18
70
1
43
0
10
0
20
0
10
0
20
2.063
10
0.563
20
2.625
10
1.313
20
2.625
10
1.687
20
2.25
10
0.75
20
2.25
10
0.375
20
1.875
10
0.375
20
1.313
10
1.5
20
1.313
10
1.5
20
1.875
10
1.125
20
2.25
10
1.687
20
2.25
10
1.875
20
2.063
10
1.875
20
0
10
1.5
20
0
10
1.5
20
0.938
10
0.375
20
0.938
10
0.375
20
0
0
ENDBLK
0
BLOCK
2
B
70
0
10
0
20
0
0
LWPOLYLINE
8
L1D10
90
23
70
1
43
0
10
0
20
0
10
0
20
2.625
10
1.5
20
2.625
10
1.875
20
2.25
10
0.375
20
2.25
10
0.375
20
1.5
10
1.313
20
1.5
10
1.5
20
1.687
10
1.5
20
2.063
10
1.313
20
2.25
10
1.875
20
2.25
10
1.875
20
1.5
10
1.687
20
1.313
10
1.875
20
1.125
10
0.375
20
1.125
10
0.375
20
0.375
10
1.313
20
0.375
10
1.5
20
0.563
10
1.5
20
0.938
10
1.313
20
1.125
10
1.875
20
1.125
10
1.875
20
0.375
10
1.5
20
0
0
ENDBLK
0
BLOCK
2
C
70
0
10
0
20
0
0
LWPOLYLINE
8
L1D10
90
20
70
1
43
0
10
0.375
20
0
10
0
20
0.375
10
0
20
2.25
10
0.375
20
2.625
10
1.5
20
2.625
10
1.875
20
2.25
10
1.875
20
1.875
10
1.5
20
1.875
10
1.5
20
2.063
10
1.313
20
2.25
10
0.563
20
2.25
10
0.375
20
2.063
10
0.375
20
0.563
10
0.563
20
0.375
10
1.313
20
0.375
10
1.5
20
0.563
10
1.5
20
0.75
10
1.875
20
0.75
10
1.875
20
0.375
10
1.5
20
0
0
ENDBLK
0
BLOCK
2
D
70
0
10
0
20
0
0
LWPOLYLINE
8
L1D10
90
14
70
1
43
0
10
0
20
0
10
0
20
2.625
10
1.313
20
2.625
10
1.687
20
2.25
10
0.375
20
2.25
10
0.375
20
0.375
10
1.125
20
0.375
10
1.5
20
0.75
10
1.5
20
1.875
10
1.125
20
2.25
10
1.687
20
2.25
10
1.875
20
2.063
10
1.875
20
0.563
10
1.313
20
0
0
ENDBLK
0
BLOCK
2
E
70
0
10
0
20
0
0
LWPOLYLINE
8
L1D10
90
12
70
1
43
0
10
0
20
0
10
0
20
2.625
10
1.875
20
2.625
10
1.875
20
2.25
10
0.375
20
2.25
10
0.375
20
1.5
10
1.125
20
1.5
10
1.125
20
1.125
10
0.375
20
1.125
10
0.375
20
0.375
10
1.875
20
0.375
10
1.875
20
0
0
ENDBLK
0
BLOCK
2
F
70
0
10
0
20
0
0
LWPOLYLINE
8
L1D10
90
10
70
1
43
0
10
0
20
0
10
0
20
2.625
10
1.875
20
2.625
10
1.875
20
2.25
10
0.375
20
2.25
10
0.375
20
1.5
10
1.125
20
1.5
10
1.125
20
1.125
10
0.375
20
1.125
10
0.375
20
0
0
ENDBLK
0
BLOCK
2
G
70
0
10
0
20
0
0
LWPOLYLINE
8
L1D10
90
22
70
1
43
0
10
0.375
20
0
10
0
20
0.375
10
0
20
2.25
10
0.375
20
2.625
10
1.5
20
2.625
10
1.875
20
2.25
10
1.875
20
1.875
10
1.5
20
1.875
10
1.5
20
2.063
10
1.313
20
2.25
10
0.563
20
2.25
10
0.375
20
2.063
10
0.375
20
0.563
10
0.563
20
0.375
10
1.313
20
0.375
10
1.5
20
0.563
10
1.5
20
1.125
10
0.938
20
1.125
10
0.938
20
1.5
10
1.875
20
1.5
10
1.875
20
0.375
10
1.5
20
0
0
ENDBLK
0
BLOCK
2
H
70
0
10
0
20
0
0
LWPOLYLINE
8
L1D10
90
12
70
1
43
0
10
0
20
0
10
0
20
2.625
10
0.375
20
2.625
10
0.375
20
1.5
10
1.5
20
1.5
10
1.5
20
2.625
10
1.875
20
2.625
10
1.875
20
0
10
1.5
20
0
10
1.5
20
1.125
10
0.375
20
1.125
10
0.375
20
0
0
ENDBLK
0
BLOCK
2
I
70
0
10
0
20
0
0
LWPOLYLINE
8
L1D10
90
12
70
1
43
0
10
0.562
20
0
10
0.562
20
0.375
10
0.749
20
0.375
10
0.749
20
2.25
10
0.562
20
2.25
10
0.562
20
2.625
10
1.313
20
2.625
10
1.313
20
2.25
10
1.125
20
2.25
10
1.125
20
0.375
10
1.313
20
0.375
10
1.313
20
0
0
ENDBLK
0
BLOCK
2
J
70
0
10
0
20
0
0
LWPOLYLINE
8
L1D10
90
14
70
1
43
0
10
0.375
20
0
10
0
20
0.375
10
0
20
0.75
10
0.375
20
0.75
10
0.375
20
0.563
10
0.563
20
0.375
10
1.313
20
0.375
10
1.5
20
0.563
10
1.5
20
2.25
10
1.125
20
2.25
10
1.125
20
2.625
10
1.875
20
2.625
10
1.875
20
0.375
10
1.5
20
0
0
ENDBLK
0
BLOCK
2
K
70
0
10
0
20
0
0
LWPOLYLINE
8
L1D10
90
17
70
1
43
0
10
0
20
0
10
0
20
2.625
10
0.375
20
2.625
10
0.375
20
1.5
10
0.75
20
1.5
10
1.5
20
2.25
10
1.5
20
2.625
10
1.875
20
2.625
10
1.875
20
2.063
10
1.125
20
1.313
10
1.875
20
0.563
10
1.875
20
0
10
1.5
20
0
10
1.5
20
0.375
10
0.75
20
1.125
10
0.375
20
1.125
10
0.375
20
0
0
ENDBLK
0
BLOCK
2
L
70
0
10
0
20
0
0
LWPOLYLINE
8
L1D10
90
6
70
1
43
0
10
0
20
0
10
0
20
2.625
10
0.375
20
2.625
10
0.375
20
0.375
10
1.875
20
0.375
10
1.875
20
0
0
ENDBLK
0
BLOCK
2
M
70
0
10
0
20
0
0
LWPOLYLINE
8
L1D10
90
15
70
1
43
0
10
0
20
0
10
0
20
2.625
10
0.375
20
2.625
10
0.75
20
2.25
10
1.125
20
2.25
10
1.5
20
2.625
10
1.875
20
2.625
10
1.875
20
0
10
1.5
20
0
10
1.5
20
1.875
10
1.313
20
1.875
10
0.938
20
1.5
10
0.563
20
1.875
10
0.375
20
1.875
10
0.375
20
0
0
ENDBLK
0
BLOCK
2
N
70
0
10
0
20
0
0
LWPOLYLINE
8
L1D10
90
13
70
1
43
0
10
0
20
0
10
0
20
2.625
10
0.375
20
2.625
10
1.313
20
1.687
10
1.5
20
1.687
10
1.5
20
2.625
10
1.875
20
2.625
10
1.875
20
0
10
1.5
20
0
10
1.5
20
0.938
10
0.563
20
1.875
10
0.375
20
1.875
10
0.375
20
0
0
ENDBLK
0
BLOCK
2
O
70
0
10
0
20
0
0
LWPOLYLINE
8
L1D10
90
20
70
1
43
0
10
0.375
20
0
10
0
20
0.375
10
0
20
2.25
10
0.375
20
2.625
10
1.5
20
2.625
10
1.875
20
2.25
10
1.875
20
1.313
10
1.5
20
1.313
10
1.5
20
2.063
10
1.313
20
2.25
10
0.563
20
2.25
10
0.375
20
2.063
10
0.375
20
0.563
10
0.563
20
0.375
10
1.313
20
0.375
10
1.5
20
0.563
10
1.5
20
1.313
10
1.875
20
1.313
10
1.875
20
0.375
10
1.5
20
0
0
ENDBLK
0
BLOCK
2
P
70
0
10
0
20
0
0
LWPOLYLINE
8
L1D10
90
14
70
1
43
0
10
0
20
0
10
0
20
2.625
10
1.5
20
2.625
10
1.875
20
2.25
10
1.875
20
1.5
10
1.5
20
1.125
10
0.375
20
1.125
10
0.375
20
1.5
10
1.313
20
1.5
10
1.5
20
1.687
10
1.5
20
2.063
10
1.313
20
2.25
10
0.375
20
2.25
10
0.375
20
0
0
ENDBLK
0
BLOCK
2
Q
70
0
10
0
20
0
0
LWPOLYLINE
8
L1D10
90
25
70
1
43
0
10
0.375
20
0
10
0
20
0.375
10
0
20
2.25
10
0.375
20
2.625
10
1.5
20
2.625
10
1.875
20
2.25
10
0.563
20
2.25
10
0.375
20
2.063
10
0.375
20
0.563
10
0.563
20
0.375
10
0.938
20
0.375
10
0.938
20
0.563
10
0.75
20
0.75
10
1.125
20
1.125
10
1.313
20
0.938
10
1.5
20
0.938
10
1.5
20
2.063
10
1.313
20
2.25
10
1.875
20
2.25
10
1.875
20
0.75
10
1.687
20
0.563
10
1.875
20
0.375
10
1.5
20
0
10
1.313
20
0.188
10
1.125
20
0
0
ENDBLK
0
BLOCK
2
R
70
0
10
0
20
0
0
LWPOLYLINE
8
L1D10
90
21
70
1
43
0
10
0
20
0
10
0
20
2.625
10
1.5
20
2.625
10
1.875
20
2.25
10
0.375
20
2.25
10
0.375
20
1.5
10
1.313
20
1.5
10
1.5
20
1.687
10
1.5
20
2.063
10
1.313
20
2.25
10
1.875
20
2.25
10
1.875
20
1.5
10
1.5
20
1.125
10
1.5
20
0.938
10
1.875
20
0.563
10
1.875
20
0
10
1.5
20
0
10
1.5
20
0.375
10
0.75
20
1.125
10
0.375
20
1.125
10
0.375
20
0
0
ENDBLK
0
BLOCK
2
S
70
0
10
0
20
0
0
LWPOLYLINE
8
L1D10
90
28
70
1
43
0
10
0.375
20
0
10
0
20
0.375
10
0
20
0.75
10
0.375
20
0.75
10
0.375
20
0.563
10
0.563
20
0.375
10
1.313
20
0.375
10
1.5
20
0.563
10
1.5
20
0.938
10
1.313
20
1.125
10
0.375
20
1.125
10
0
20
1.5
10
0
20
2.25
10
0.375
20
2.625
10
1.5
20
2.625
10
1.875
20
2.25
10
1.875
20
1.875
10
1.5
20
1.875
10
1.5
20
2.063
10
1.313
20
2.25
10
0.563
20
2.25
10
0.375
20
2.063
10
0.375
20
1.687
10
0.563
20
1.5
10
1.5
20
1.5
10
1.875
20
1.125
10
1.875
20
0.375
10
1.5
20
0
0
ENDBLK
0
BLOCK
2
T
70
0
10
0
20
0
0
LWPOLYLINE
8
L1D10
90
8
70
1
43
0
10
0.75
20
0
10
0.75
20
2.25
10
0
20
2.25
10
0
20
2.625
10
1.875
20
2.625
10
1.875
20
2.25
10
1.125
20
2.25
10
1.125
20
0
0
ENDBLK
0
BLOCK
2
U
70
0
10
0
20
0
0
LWPOLYLINE
8
L1D10
90
12
70
1
43
0
10
0.375
20
0
10
0
20
0.375
10
0
20
2.625
10
0.375
20
2.625
10
0.375
20
0.563
10
0.563
20
0.375
10
1.313
20
0.375
10
1.5
20
0.563
10
1.5
20
2.625
10
1.875
20
2.625
10
1.875
20
0.375
10
1.5
20
0
0
ENDBLK
0
BLOCK
2
V
70
0
10
0
20
0
0
LWPOLYLINE
8
L1D10
90
11
70
1
43
0
10
0.75
20
0
10
0
20
0.75
10
0
20
2.625
10
0.375
20
2.625
10
0.375
20
0.938
10
0.938
20
0.375
10
1.5
20
0.938
10
1.5
20
2.625
10
1.875
20
2.625
10
1.875
20
0.75
10
1.125
20
0
0
ENDBLK
0
BLOCK
2
W
70
0
10
0
20
0
0
LWPOLYLINE
8
L1D10
90
14
70
1
43
0
10
0
20
0
10
0
20
2.625
10
0.375
20
2.625
10
0.375
20
0.563
10
0.563
20
0.563
10
0.938
20
0.938
10
1.313
20
0.563
10
1.5
20
0.563
10
1.5
20
2.625
10
1.875
20
2.625
10
1.875
20
0
10
1.313
20
0
10
0.938
20
0.375
10
0.563
20
0
0
ENDBLK
0
BLOCK
2
X
70
0
10
0
20
0
0
LWPOLYLINE
8
L1D10
90
22
70
1
43
0
10
0
20
0
10
0
20
0.563
10
0.563
20
1.125
10
0.563
20
1.5
10
0
20
2.063
10
0
20
2.625
10
0.375
20
2.625
10
0.375
20
2.25
10
0.938
20
1.687
10
1.5
20
2.25
10
1.5
20
2.625
10
1.875
20
2.625
10
1.875
20
2.063
10
1.313
20
1.5
10
1.313
20
1.125
10
1.875
20
0.563
10
1.875
20
0
10
1.5
20
0
10
1.5
20
0.375
10
0.938
20
0.938
10
0.375
20
0.375
10
0.375
20
0
0
ENDBLK
0
BLOCK
2
Y
70
0
10
0
20
0
0
LWPOLYLINE
8
L1D10
90
13
70
1
43
0
10
0.75
20
0
10
0.75
20
1.313
10
0
20
2.063
10
0
20
2.625
10
0.375
20
2.625
10
0.375
20
2.25
10
0.938
20
1.687
10
1.5
20
2.25
10
1.5
20
2.625
10
1.875
20
2.625
10
1.875
20
2.063
10
1.125
20
1.313
10
1.125
20
0
0
ENDBLK
0
BLOCK
2
Z
70
0
10
0
20
0
0
LWPOLYLINE
8
L1D10
90
16
70
1
43
0
10
0
20
0
10
0
20
0.75
10
0.75
20
1.5
10
0.938
20
1.5
10
1.5
20
2.063
10
1.5
20
2.25
10
0
20
2.25
10
0
20
2.625
10
1.875
20
2.625
10
1.875
20
1.875
10
1.125
20
1.125
10
0.938
20
1.125
10
0.375
20
0.563
10
0.375
20
0.375
10
1.875
20
0.375
10
1.875
20
0
0
ENDBLK
0
BLOCK
2
Stop
70
0
10
0
20
0
0
LWPOLYLINE
8
L1D10
90
4
70
1
43
0
10
0
20
0
10
0
20
0.375
10
0.375
20
0.375
10
0.375
20
0
0
ENDBLK
0
ENDSEC
0
SECTION
2
ENTITIES
0
INSERT
8
0
2
4
10
0
20
71.618
41
1.5
42
1.5
50
0
0
INSERT
8
0
2
5
10
0
20
60.15
41
1.5
42
1.5
50
0
0
INSERT
8
0
2
6
10
0
20
47.997
41
1.5
42
1.5
50
0
0
INSERT
8
0
2
7
10
0
20
35.809
41
1.5
42
1.5
50
0
0
INSERT
8
0
2
8
10
0
20
23.821
41
1.5
42
1.5
50
0
0
INSERT
8
0
2
9
10
0
20
11.366
41
1.5
42
1.5
50
0
0
INSERT
8
0
2
0
10
0
20
-0.467
41
1.5
42
1.5
50
0
0
INSERT
8
0
2
1
10
0
20
107.895
41
1.5
42
1.5
50
0
0
INSERT
8
0
2
2
10
0
20
95.906
41
1.5
42
1.5
50
0
0
INSERT
8
0
2
3
10
0
20
83.762
41
1.5
42
1.5
50
0
0
INSERT
8
0
2
B
10
15.259
20
95.905
41
1.5
42
1.5
50
0
0
INSERT
8
0
2
C
10
15.259
20
83.761
41
1.5
42
1.5
50
0
0
INSERT
8
0
2
D
10
15.259
20
71.617
41
1.5
42
1.5
50
0
0
INSERT
8
0
2
E
10
15.259
20
60.15
41
1.5
42
1.5
50
0
0
INSERT
8
0
2
F
10
15.259
20
47.998
41
1.5
42
1.5
50
0
0
INSERT
8
0
2
G
10
15.259
20
35.809
41
1.5
42
1.5
50
0
0
INSERT
8
0
2
H
10
15.259
20
23.821
41
1.5
42
1.5
50
0
0
INSERT
8
0
2
I
10
15.257
20
11.366
41
1.5
42
1.5
50
0
0
INSERT
8
0
2
J
10
15.259
20
-0.467
41
1.5
42
1.5
50
0
0
INSERT
8
0
2
K
10
32.851
20
107.895
41
1.5
42
1.5
50
0
0
INSERT
8
0
2
L
10
32.851
20
95.905
41
1.5
42
1.5
50
0
0
INSERT
8
0
2
M
10
32.851
20
83.761
41
1.5
42
1.5
50
0
0
INSERT
8
0
2
N
10
32.851
20
71.617
41
1.5
42
1.5
50
0
0
INSERT
8
0
2
O
10
32.851
20
60.15
41
1.5
42
1.5
50
0
0
INSERT
8
0
2
P
10
32.851
20
47.998
41
1.5
42
1.5
50
0
0
INSERT
8
0
2
Q
10
32.851
20
35.809
41
1.5
42
1.5
50
0
0
INSERT
8
0
2
R
10
32.851
20
23.821
41
1.5
42
1.5
50
0
0
INSERT
8
0
2
S
10
32.851
20
11.366
41
1.5
42
1.5
50
0
0
INSERT
8
0
2
T
10
32.851
20
-0.467
41
1.5
42
1.5
50
0
0
INSERT
8
0
2
U
10
51.69
20
107.895
41
1.5
42
1.5
50
0
0
INSERT
8
0
2
V
10
51.69
20
95.905
41
1.5
42
1.5
50
0
0
INSERT
8
0
2
W
10
51.69
20
83.761
41
1.5
42
1.5
50
0
0
INSERT
8
0
2
X
10
51.69
20
71.617
41
1.5
42
1.5
50
0
0
INSERT
8
0
2
Y
10
51.69
20
60.15
41
1.5
42
1.5
50
0
0
INSERT
8
0
2
Z
10
51.69
20
47.998
41
1.5
42
1.5
50
0
0
INSERT
8
0
2
Stop
10
51.69
20
35.809
41
1.5
42
1.5
50
0
0
INSERT
8
0
2
A
10
15.259
20
107.895
41
1.5
42
1.5
50
0
0
ENDSEC
0
EOF
